Lab 9: Working with COVID-19 Reporting Data
…
Now we summarise the data based on the deaths by country

report_03_11_2020 %>% 
  group_by(Country.Region) %>% 
  summarise(Deaths = sum(Deaths)) %>% 
  arrange(desc(Deaths))

## # A tibble: 116 x 2
##    Country.Region Deaths
##    <chr>           <dbl>
##  1 China            3161
##  2 Italy             827
##  3 Iran              354
##  4 Korea, South       60
##  5 Spain              54
##  6 France             48
##  7 US                 36
##  8 Japan              15
##  9 United Kingdom      8
## 10 Cruise Ship         7
## # ... with 106 more rows
…
